%YAML 1.1
%TAG !u! tag:unity3d.com,2011:
--- !u!1045 &1
EditorBuildSettings:
  m_ObjectHideFlags: 0
  serializedVersion: 2
  m_Scenes:
  - enabled: 1
    path: Assets/Scenes/Catlike Coding/MainScene.unity
    guid: 488a2d5d127207a4ab4fa4de16e05df1
  - enabled: 1
    path: Assets/Scenes/Catlike Coding/Level 1.unity
    guid: ba6508d816eaa754e95316f4ae84cf60
  - enabled: 1
    path: Assets/Scenes/Catlike Coding/Level 2.unity
    guid: 837e0eab1d9b7d9408c9317aa0b0a485
  - enabled: 1
    path: Assets/Scenes/Catlike Coding/Level 3.unity
    guid: ba28a7e5a1716344c9fe10ade9851216
  - enabled: 1
    path: Assets/Scenes/Catlike Coding/Level 4.unity
    guid: aa25d1d359110ce48bec265c66ae2a52
